"Designator","Footprint","Mid X","Mid Y","Ref X","Ref Y","Pad X","Pad Y","Layer","Rotation","Comment"
""
"C30","PCB-9e7goo2pp4p9aab9r63k-1","3485mil","1261.574mil","3485mil","1360mil","3485mil","1360mil","T","270.00","470uF"
"R30","RESC2013X50X30NL20T20","3775mil","1770mil","3775mil","1770mil","3749.249mil","1744.249mil","T","45.00","Vishay Dale CRCW08050000Z0EB"
"L1","PCB-8qekhc7qv5riw3qnx70t-1","3355mil","1830mil","3355mil","1830mil","3167.992mil","1830mil","T","360.00","33uH"
"R28","RESC2013X60X30LL20T20","3800mil","2900mil","3800mil","2900mil","3777.033mil","2877.033mil","T","45.00","47"
"R27","RESC2013X60X30LL20T20","3220mil","2730mil","3220mil","2730mil","3220mil","2762.48mil","T","270.00","47"
"R25","RESC2013X50X30NL20T20","3245mil","2230mil","3245mil","2230mil","3245mil","2266.417mil","T","270.00","0"
"R20","RESC2013X50X30ML20T20","3000mil","3885mil","3000mil","3885mil","3000mil","3925.354mil","T","270.00","10M"
"D5","PCB-1071565-1","3845mil","3005mil","3845mil","3005mil","3905mil","3005mil","T","180.00","LED"
"D4","PCB-1071565-1","3360mil","2645mil","3360mil","2645mil","3300mil","2645mil","T","0.00","Dialight 597-6901-607F"
"C19","PCB-sipz5fb4sqpupim1d7ob-1","4405mil","3155mil","4405mil","3155mil","4405mil","3126.457mil","T","90.00","0.1uF"
"TP3","PCB-iek5qk9ganu4yn12lo6h-1","2985mil","2905mil","2985mil","2905mil","2985mil","2905mil","T","180.00","50x60mil-pad"
"VBATT","PCB-iek5qk9ganu4yn12lo6h-1","4915mil","1585mil","4915mil","1585mil","4915mil","1585mil","T","90.00","50x60mil-pad"
"VM","PCB-iek5qk9ganu4yn12lo6h-1","3955mil","1915mil","3955mil","1915mil","3955mil","1915mil","T","0.00","50x60mil-pad"
"R24","RESC2013X50X30NL20T20","3445mil","2220mil","3445mil","2220mil","3445mil","2183.583mil","T","90.00","8.45k"
"R23","RESC2013X50X30LL20T20","3355mil","2225mil","3355mil","2225mil","3355mil","2192.52mil","T","90.00","28k"
"R22","RESC6432X08M","4180mil","2655mil","4180mil","2655mil","4106.923mil","2581.923mil","T","45.00","0.001"
"R19","RESC6432X08M","4290mil","2175mil","4290mil","2175mil","4186.654mil","2175mil","T","360.00","0.001"
"R16","RESC6432X08M","4350mil","1900mil","4350mil","1900mil","4350mil","1796.653mil","T","90.00","0.001"
"R13","RESC2013X60X30LL20T20","3175mil","3260mil","3175mil","3260mil","3207.48mil","3260mil","T","180.00","10K"
"R12","RESC2013X60X30LL20T20","3785mil","3530mil","3785mil","3530mil","3785mil","3497.52mil","T","90.00","10K"
"R11","RESC2013X60X30LL20T20","3785mil","3355mil","3785mil","3355mil","3785mil","3387.48mil","T","270.00","10K"
" ","RESC2013X60X30LL20T20","4015mil","4115mil","4015mil","4115mil","4015mil","4082.52mil","T","90.00","10K"
"R9","PCB-uqjqm2zri9b8yme4qede-1","3205mil","3020mil","3205mil","3020mil","3205mil","2983.583mil","T","90.00","33"
"R8","PCB-uqjqm2zri9b8yme4qede-1","3295mil","3015mil","3295mil","3015mil","3295mil","2978.583mil","T","90.00","33"
"R7","RESC2013X50X30LL20T20","3120mil","3035mil","3120mil","3035mil","3120mil","3002.52mil","T","90.00","82"
"R6","PCB-0izju0g7tu4pjfn6if4y-1","3180mil","3950mil","3180mil","3950mil","3180mil","3990.354mil","T","270.00","100"
"R5","PCB-0izju0g7tu4pjfn6if4y-1","3365mil","3950mil","3365mil","3950mil","3365mil","3990.354mil","T","270.00","100"
"R4","PCB-0izju0g7tu4pjfn6if4y-1","3530mil","3950mil","3530mil","3950mil","3530mil","3990.354mil","T","270.00","100"
"R3","RESC2013X60X30LL20T20","3260mil","4090mil","3260mil","4090mil","3292.48mil","4090mil","T","180.00","10K"
"R2","RESC2013X60X30LL20T20","3395mil","4090mil","3395mil","4090mil","3362.52mil","4090mil","T","360.00","10K"
"R1","RESC2013X60X30LL20T20","3525mil","4090mil","3525mil","4090mil","3492.52mil","4090mil","T","360.00","10K"
"Q6","PCB-wvxbv0qbqpew6b1oiyg5-1","4578.76mil","2706.024mil","4520mil","2745mil","4598.445mil","2706.024mil","T","0.00","Vishay SIR680DP-T1-RE3"
"Q5","PCB-wvxbv0qbqpew6b1oiyg5-1","4576.24mil","2533.976mil","4635mil","2495mil","4556.555mil","2533.976mil","T","180.00","Vishay SIR680DP-T1-RE3"
"Q4","PCB-wvxbv0qbqpew6b1oiyg5-1","4583.76mil","2181.024mil","4525mil","2220mil","4603.445mil","2181.024mil","T","0.00","Vishay SIR680DP-T1-RE3"
"Q3","PCB-wvxbv0qbqpew6b1oiyg5-1","4576.24mil","2368.976mil","4635mil","2330mil","4556.555mil","2368.976mil","T","180.00","Vishay SIR680DP-T1-RE3"
"Q2","PCB-wvxbv0qbqpew6b1oiyg5-1","4578.76mil","1966.024mil","4520mil","2005mil","4598.445mil","1966.024mil","T","360.00","Vishay SIR680DP-T1-RE3"
"Q1","PCB-wvxbv0qbqpew6b1oiyg5-1","4576.24mil","1778.976mil","4635mil","1740mil","4556.555mil","1778.976mil","T","180.00","Vishay SIR680DP-T1-RE3"
"IC1","VQFN-48_M","3750mil","2435mil","3750mil","2435mil","3641.732mil","2300.157mil","T","90.00","Texas Instruments DRV8323RSRGZT"
"D3","PCB-ge8exhkz7zzytemt85cb-1","3170mil","2500mil","3170mil","2500mil","3170mil","2579.331mil","T","270.00","STMicroelectronics STPS2H100A"
"D2","PCB-8cu9gpz83pqrbhaj5rn9-1","3330mil","2820mil","3330mil","2820mil","3365.433mil","2878.071mil","T","90.00","ASMT-YTB7"
"D1","PCB-iur9xjol2nuz7see6iaw-1","3813.134mil","1608.134mil","3790mil","1585mil","3744.901mil","1591.124mil","T","315.00","FSV10100V"
"SPI","2x3P","4290mil","4100mil","4190mil","4050mil","4190mil","4050mil","T","90.00","SPI"
"PWR","PCB-42h2ntsp5e5udn23h2hi-1","4137.362mil","1255mil","4285mil","1255mil","4285mil","1255mil","T","180.00","Pololu XT60 YELLOW"
"C17","PCB-4097432-1","3055mil","2650mil","3055mil","2650mil","3017.598mil","2650mil","T","0.00","22uF"
"C16","PCB-zjvdhtdbmhop4ehnpwgw-1","3415mil","2455mil","3415mil","2455mil","3451.417mil","2455mil","T","180.00","100nF"
"C15","PCB-31gyd8pvnu3z1ruid3ov-1","3695mil","1970mil","3695mil","1970mil","3695mil","1942.441mil","T","90.00","1uF"
"C14","PCB-l7zfh8smuc4quhgf702o-1","4340mil","2500mil","4340mil","2500mil","4376.417mil","2500mil","T","180.00","1uF"
"C13","PCB-l7zfh8smuc4quhgf702o-1","4320mil","2360mil","4320mil","2360mil","4356.417mil","2360mil","T","180.00","1uF"
"C12","PCB-l7zfh8smuc4quhgf702o-1","4333.274mil","1550.906mil","4333.274mil","1550.906mil","4333.274mil","1514.488mil","T","90.00","1uF"
"C11","PCB-sipz5fb4sqpupim1d7ob-1","3070mil","3550mil","3070mil","3550mil","3041.457mil","3550mil","T","360.00","0.1uF"
"C10","CAPC2013X140X45NL15T25","3915mil","2775mil","3915mil","2775mil","3891.337mil","2751.337mil","T","45.00","1uF"
"C9","CAPC2013X140X45NL15T25","3695mil","2135mil","3695mil","2135mil","3695mil","2101.535mil","T","90.00","1uF"
"C8","PCB-4xxxh2d69ab08olz5k3h-1","3530mil","2155mil","3530mil","2155mil","3530mil","2183.543mil","T","270.00","0.1uF 100V"
"C7","CAPC2013X110X50ML20T25","3605mil","2150mil","3605mil","2150mil","3605mil","2185.433mil","T","270.00","47nF 100V"
"C6","CAPC2013X140X45NL15T25","3615mil","2740mil","3615mil","2740mil","3615mil","2773.465mil","T","270.00","1uF"
"C5","CAPC2013X94X50LL20T25","3610mil","3930mil","3610mil","3930mil","3610mil","3958.543mil","T","270.00","16nF"
"C4","CAPC2013X94X50LL20T25","3445mil","3930mil","3445mil","3930mil","3445mil","3958.543mil","T","270.00","16nF"
"C3","CAPC2013X94X50LL20T25","3265mil","3930mil","3265mil","3930mil","3265mil","3958.543mil","T","270.00","16nF"
"C2","PCB-9e7goo2pp4p9aab9r63k-1","4725mil","1266.574mil","4725mil","1365mil","4725mil","1365mil","T","270.00","470uF"
"C1","PCB-9e7goo2pp4p9aab9r63k-1","5265mil","1266.574mil","5265mil","1365mil","5265mil","1365mil","T","270.00","470uF"

