Replace Part C1 CL10A475MP5LNNC in E:\Projects\Ecar Team\Board Files\Drive System\Controller Board\Version 1\Power.SchDoc with CL10A475MP5LNNC from ECar Reference LIbary.IntLib
Replace Part C2 CL10A475MP5LNNC in E:\Projects\Ecar Team\Board Files\Drive System\Controller Board\Version 1\Power.SchDoc with CL10A475MP5LNNC from ECar Reference LIbary.IntLib
Replace Part C3 CL10A475MP5LNNC in E:\Projects\Ecar Team\Board Files\Drive System\Controller Board\Version 1\Power.SchDoc with CL10A475MP5LNNC from ECar Reference LIbary.IntLib
Replace Part C4 CL10A475MP5LNNC in E:\Projects\Ecar Team\Board Files\Drive System\Controller Board\Version 1\Power.SchDoc with CL10A475MP5LNNC from ECar Reference LIbary.IntLib
Replace Part C5 CL10A475MP5LNNC in E:\Projects\Ecar Team\Board Files\Drive System\Controller Board\Version 1\Power.SchDoc with CL10A475MP5LNNC from ECar Reference LIbary.IntLib
Replace Part C6 CL10A475MP5LNNC in E:\Projects\Ecar Team\Board Files\Drive System\Controller Board\Version 1\Power.SchDoc with CL10A475MP5LNNC from ECar Reference LIbary.IntLib
Replace Part C7 CL10F104ZB8NNNC in E:\Projects\Ecar Team\Board Files\Drive System\Controller Board\Version 1\Power.SchDoc with CL10F104ZB8NNNC from ECar Reference LIbary.IntLib
Replace Part C8 CL10F104ZB8NNNC in E:\Projects\Ecar Team\Board Files\Drive System\Controller Board\Version 1\Power.SchDoc with CL10F104ZB8NNNC from ECar Reference LIbary.IntLib
Replace Part C9 CL10F104ZB8NNNC in E:\Projects\Ecar Team\Board Files\Drive System\Controller Board\Version 1\Power.SchDoc with CL10F104ZB8NNNC from ECar Reference LIbary.IntLib
Replace Part C10 CL10A106MQ8NNNC in E:\Projects\Ecar Team\Board Files\Drive System\Controller Board\Version 1\Power.SchDoc with CL10A106MQ8NNNC from ECar Reference LIbary.IntLib
Replace Part C11 CL10A106MQ8NNNC in E:\Projects\Ecar Team\Board Files\Drive System\Controller Board\Version 1\Power.SchDoc with CL10A106MQ8NNNC from ECar Reference LIbary.IntLib
Replace Part C12 CL10A106MQ8NNNC in E:\Projects\Ecar Team\Board Files\Drive System\Controller Board\Version 1\Power.SchDoc with CL10A106MQ8NNNC from ECar Reference LIbary.IntLib
Replace Part C13 CL10A106MQ8NNNC in E:\Projects\Ecar Team\Board Files\Drive System\Controller Board\Version 1\Power.SchDoc with CL10A106MQ8NNNC from ECar Reference LIbary.IntLib
Replace Part C14 CL10A475MP5LNNC in E:\Projects\Ecar Team\Board Files\Drive System\Controller Board\Version 1\Power.SchDoc with CL10A475MP5LNNC from ECar Reference LIbary.IntLib
Replace Part C15 CL10F104ZB8NNNC in E:\Projects\Ecar Team\Board Files\Drive System\Controller Board\Version 1\Power.SchDoc with CL10F104ZB8NNNC from ECar Reference LIbary.IntLib
Replace Part C16 CL10F104ZB8NNNC in E:\Projects\Ecar Team\Board Files\Drive System\Controller Board\Version 1\Power.SchDoc with CL10F104ZB8NNNC from ECar Reference LIbary.IntLib
Replace Part L1 ASMPH-1008-2R2M-T in E:\Projects\Ecar Team\Board Files\Drive System\Controller Board\Version 1\Power.SchDoc with ASMPH-1008-2R2M-T from ECar Reference LIbary.IntLib
Replace Part R1 RR0816P-103-D in E:\Projects\Ecar Team\Board Files\Drive System\Controller Board\Version 1\Power.SchDoc with RR0816P-103-D from ECar Reference LIbary.IntLib
Replace Part U1 F280049CPMS in E:\Projects\Ecar Team\Board Files\Drive System\Controller Board\Version 1\Power.SchDoc with F280049CPMS from ECar Reference LIbary.IntLib
Replace Part U2 UA78L05ACPK in E:\Projects\Ecar Team\Board Files\Drive System\Controller Board\Version 1\Power.SchDoc with UA78L05ACPK from ECar Reference LIbary.IntLib
